<svg width="32" height="32" viewBox="0 0 32 32" fill="none" xmlns="http://www.w3.org/2000/svg">
<g filter="url(#filter0_i_31_1466)">
<path d="M12.1111 12.3034C12.4706 12.3034 12.823 12.207 13.1315 12.0223C14.4796 11.2154 16.5007 9.98534 18.3951 8.81901C20.1373 7.92057 20.9811 8.60026 20.9811 9.75651V11.6535C20.9811 12.0125 21.2736 12.2986 21.6287 12.3503C22.8931 12.5344 24.0317 13.2506 24.7434 14.3362L29.067 21.194C31.9576 25.6003 29.0039 29.8659 24.633 29.8659H8.11389C5.03577 29.8659 2.44202 27.6273 2.44202 24.8659C2.44202 23.5768 2.82483 22.5924 3.45764 21.444L7.92624 14.3719C8.75403 13.0828 10.1808 12.3034 11.7128 12.3034H12.1111Z" fill="url(#paint0_radial_31_1466)"/>
<path d="M12.1111 12.3034C12.4706 12.3034 12.823 12.207 13.1315 12.0223C14.4796 11.2154 16.5007 9.98534 18.3951 8.81901C20.1373 7.92057 20.9811 8.60026 20.9811 9.75651V11.6535C20.9811 12.0125 21.2736 12.2986 21.6287 12.3503C22.8931 12.5344 24.0317 13.2506 24.7434 14.3362L29.067 21.194C31.9576 25.6003 29.0039 29.8659 24.633 29.8659H8.11389C5.03577 29.8659 2.44202 27.6273 2.44202 24.8659C2.44202 23.5768 2.82483 22.5924 3.45764 21.444L7.92624 14.3719C8.75403 13.0828 10.1808 12.3034 11.7128 12.3034H12.1111Z" fill="url(#paint1_radial_31_1466)"/>
<path d="M12.1111 12.3034C12.4706 12.3034 12.823 12.207 13.1315 12.0223C14.4796 11.2154 16.5007 9.98534 18.3951 8.81901C20.1373 7.92057 20.9811 8.60026 20.9811 9.75651V11.6535C20.9811 12.0125 21.2736 12.2986 21.6287 12.3503C22.8931 12.5344 24.0317 13.2506 24.7434 14.3362L29.067 21.194C31.9576 25.6003 29.0039 29.8659 24.633 29.8659H8.11389C5.03577 29.8659 2.44202 27.6273 2.44202 24.8659C2.44202 23.5768 2.82483 22.5924 3.45764 21.444L7.92624 14.3719C8.75403 13.0828 10.1808 12.3034 11.7128 12.3034H12.1111Z" fill="url(#paint2_radial_31_1466)"/>
<path d="M12.1111 12.3034C12.4706 12.3034 12.823 12.207 13.1315 12.0223C14.4796 11.2154 16.5007 9.98534 18.3951 8.81901C20.1373 7.92057 20.9811 8.60026 20.9811 9.75651V11.6535C20.9811 12.0125 21.2736 12.2986 21.6287 12.3503C22.8931 12.5344 24.0317 13.2506 24.7434 14.3362L29.067 21.194C31.9576 25.6003 29.0039 29.8659 24.633 29.8659H8.11389C5.03577 29.8659 2.44202 27.6273 2.44202 24.8659C2.44202 23.5768 2.82483 22.5924 3.45764 21.444L7.92624 14.3719C8.75403 13.0828 10.1808 12.3034 11.7128 12.3034H12.1111Z" fill="url(#paint3_radial_31_1466)"/>
<path d="M12.1111 12.3034C12.4706 12.3034 12.823 12.207 13.1315 12.0223C14.4796 11.2154 16.5007 9.98534 18.3951 8.81901C20.1373 7.92057 20.9811 8.60026 20.9811 9.75651V11.6535C20.9811 12.0125 21.2736 12.2986 21.6287 12.3503C22.8931 12.5344 24.0317 13.2506 24.7434 14.3362L29.067 21.194C31.9576 25.6003 29.0039 29.8659 24.633 29.8659H8.11389C5.03577 29.8659 2.44202 27.6273 2.44202 24.8659C2.44202 23.5768 2.82483 22.5924 3.45764 21.444L7.92624 14.3719C8.75403 13.0828 10.1808 12.3034 11.7128 12.3034H12.1111Z" fill="url(#paint4_radial_31_1466)"/>
<path d="M12.1111 12.3034C12.4706 12.3034 12.823 12.207 13.1315 12.0223C14.4796 11.2154 16.5007 9.98534 18.3951 8.81901C20.1373 7.92057 20.9811 8.60026 20.9811 9.75651V11.6535C20.9811 12.0125 21.2736 12.2986 21.6287 12.3503C22.8931 12.5344 24.0317 13.2506 24.7434 14.3362L29.067 21.194C31.9576 25.6003 29.0039 29.8659 24.633 29.8659H8.11389C5.03577 29.8659 2.44202 27.6273 2.44202 24.8659C2.44202 23.5768 2.82483 22.5924 3.45764 21.444L7.92624 14.3719C8.75403 13.0828 10.1808 12.3034 11.7128 12.3034H12.1111Z" fill="url(#paint5_radial_31_1466)"/>
</g>
<path d="M12.1111 12.3034C12.4706 12.3034 12.823 12.207 13.1315 12.0223C14.4796 11.2154 16.5007 9.98534 18.3951 8.81901C20.1373 7.92057 20.9811 8.60026 20.9811 9.75651V11.6535C20.9811 12.0125 21.2736 12.2986 21.6287 12.3503C22.8931 12.5344 24.0317 13.2506 24.7434 14.3362L29.067 21.194C31.9576 25.6003 29.0039 29.8659 24.633 29.8659H8.11389C5.03577 29.8659 2.44202 27.6273 2.44202 24.8659C2.44202 23.5768 2.82483 22.5924 3.45764 21.444L7.92624 14.3719C8.75403 13.0828 10.1808 12.3034 11.7128 12.3034H12.1111Z" fill="url(#paint6_radial_31_1466)"/>
<defs>
<filter id="filter0_i_31_1466" x="2.44202" y="8.40521" width="28.2759" height="21.4607" filterUnits="userSpaceOnUse" color-interpolation-filters="sRGB">
<feFlood flood-opacity="0" result="BackgroundImageFix"/>
<feBlend mode="normal" in="SourceGraphic" in2="BackgroundImageFix" result="shape"/>
<feColorMatrix in="SourceAlpha" type="matrix" values="0 0 0 0 0 0 0 0 0 0 0 0 0 0 0 0 0 0 127 0" result="hardAlpha"/>
<feOffset dx="0.5"/>
<feGaussianBlur stdDeviation="1"/>
<feComposite in2="hardAlpha" operator="arithmetic" k2="-1" k3="1"/>
<feColorMatrix type="matrix" values="0 0 0 0 0.313726 0 0 0 0 0.14902 0 0 0 0 0.160784 0 0 0 1 0"/>
<feBlend mode="normal" in2="shape" result="effect1_innerShadow_31_1466"/>
</filter>
<radialGradient id="paint0_radial_31_1466" cx="0" cy="0" r="1" gradientUnits="userSpaceOnUse" gradientTransform="translate(22.8795 15.6784) rotate(129.331) scale(18.3419 18.9282)">
<stop stop-color="#A95D4B"/>
<stop offset="0.808038" stop-color="#693039"/>
</radialGradient>
<radialGradient id="paint1_radial_31_1466" cx="0" cy="0" r="1" gradientUnits="userSpaceOnUse" gradientTransform="translate(24.2545 23.4596) rotate(180) scale(7.71875 2.6875)">
<stop stop-color="#875050"/>
<stop offset="1" stop-color="#875050" stop-opacity="0"/>
</radialGradient>
<radialGradient id="paint2_radial_31_1466" cx="0" cy="0" r="1" gradientUnits="userSpaceOnUse" gradientTransform="translate(12.317 29.8659) scale(17.3125 6.6875)">
<stop stop-color="#6D2752"/>
<stop offset="1" stop-color="#6D2752" stop-opacity="0"/>
</radialGradient>
<radialGradient id="paint3_radial_31_1466" cx="0" cy="0" r="1" gradientUnits="userSpaceOnUse" gradientTransform="translate(21.0309 8.40521) rotate(121.001) scale(7.70736 2.98654)">
<stop offset="0.182311" stop-color="#BB6C5A"/>
<stop offset="1" stop-color="#8D4A43" stop-opacity="0"/>
</radialGradient>
<radialGradient id="paint4_radial_31_1466" cx="0" cy="0" r="1" gradientUnits="userSpaceOnUse" gradientTransform="translate(17.6517 12.3543) scale(4.59302 0.459303)">
<stop stop-color="#7B4638"/>
<stop offset="1" stop-color="#8D4A43" stop-opacity="0"/>
</radialGradient>
<radialGradient id="paint5_radial_31_1466" cx="0" cy="0" r="1" gradientUnits="userSpaceOnUse" gradientTransform="translate(12.4026 12.223) scale(3.54319 0.426495)">
<stop stop-color="#915E52"/>
<stop offset="1" stop-color="#915E52" stop-opacity="0"/>
</radialGradient>
<radialGradient id="paint6_radial_31_1466" cx="0" cy="0" r="1" gradientUnits="userSpaceOnUse" gradientTransform="translate(26.192 12.9909) rotate(147.619) scale(6.06862 7.48085)">
<stop stop-color="#AA6452"/>
<stop offset="1" stop-color="#AA6452" stop-opacity="0"/>
</radialGradient>
</defs>
</svg>
