<svg width="34" height="32" viewBox="0 0 34 32" fill="none" xmlns="http://www.w3.org/2000/svg">
<g filter="url(#filter0_f_6888_5229)">
<path d="M14.7309 21.1942C12.4152 23.5763 9.40406 22.6226 7.07769 20.2296C4.75131 17.8365 4.00199 14.9328 6.31774 12.5397C8.63349 10.1467 12.4046 10.1576 14.7203 12.5397C17.0361 14.9219 17.0573 18.812 14.7309 21.1942Z" fill="#608D6A" fill-opacity="0.75"/>
</g>
<g filter="url(#filter1_f_6888_5229)">
<path d="M20.1706 21.3894C22.0212 23.4342 24.4275 22.6156 26.2866 20.5614C28.1457 18.5072 28.7445 16.0147 26.8939 13.9605C25.0433 11.9063 22.0297 11.9157 20.179 13.9605C18.3284 16.0053 18.3115 19.3446 20.1706 21.3894Z" fill="#608D6A" fill-opacity="0.75"/>
</g>
<path d="M15.36 20.7802C13.18 22.9602 10.9 21.7002 8.71 19.5102C6.52 17.3202 5.26 15.0502 7.44 12.8602C9.62 10.6702 13.17 10.6802 15.35 12.8602C17.53 15.0402 17.55 18.6002 15.36 20.7802Z" fill="url(#paint0_radial_6888_5229)"/>
<path d="M15.36 20.7802C13.18 22.9602 10.9 21.7002 8.71 19.5102C6.52 17.3202 5.26 15.0502 7.44 12.8602C9.62 10.6702 13.17 10.6802 15.35 12.8602C17.53 15.0402 17.55 18.6002 15.36 20.7802Z" fill="url(#paint1_radial_6888_5229)"/>
<path d="M15.36 20.7802C13.18 22.9602 10.9 21.7002 8.71 19.5102C6.52 17.3202 5.26 15.0502 7.44 12.8602C9.62 10.6702 13.17 10.6802 15.35 12.8602C17.53 15.0402 17.55 18.6002 15.36 20.7802Z" fill="url(#paint2_radial_6888_5229)"/>
<path d="M20.64 20.7802C22.82 22.9602 25.1 21.7002 27.29 19.5102C29.48 17.3202 30.74 15.0502 28.56 12.8602C26.38 10.6702 22.83 10.6802 20.65 12.8602C18.47 15.0402 18.46 18.6002 20.64 20.7802Z" fill="url(#paint3_radial_6888_5229)"/>
<path d="M20.64 20.7802C22.82 22.9602 25.1 21.7002 27.29 19.5102C29.48 17.3202 30.74 15.0502 28.56 12.8602C26.38 10.6702 22.83 10.6802 20.65 12.8602C18.47 15.0402 18.46 18.6002 20.64 20.7802Z" fill="url(#paint4_radial_6888_5229)"/>
<path d="M20.64 20.7802C22.82 22.9602 25.1 21.7002 27.29 19.5102C29.48 17.3202 30.74 15.0502 28.56 12.8602C26.38 10.6702 22.83 10.6802 20.65 12.8602C18.47 15.0402 18.46 18.6002 20.64 20.7802Z" fill="url(#paint5_radial_6888_5229)"/>
<path d="M20.64 20.7802C22.82 22.9602 25.1 21.7002 27.29 19.5102C29.48 17.3202 30.74 15.0502 28.56 12.8602C26.38 10.6702 22.83 10.6802 20.65 12.8602C18.47 15.0402 18.46 18.6002 20.64 20.7802Z" fill="url(#paint6_radial_6888_5229)"/>
<g filter="url(#filter2_f_6888_5229)">
<path d="M27.5251 13.2662C29.1581 14.0626 28.9939 15.735 28.1501 16.6412" stroke="#686061" stroke-width="0.75" stroke-linecap="round"/>
</g>
<path d="M27.67 13.1101C28.45 13.8901 28.59 15.0101 27.98 15.6201C27.37 16.2301 26.25 16.0901 25.47 15.3101C24.69 14.5301 24.55 13.4101 25.16 12.8001C25.77 12.1901 26.9 12.3401 27.67 13.1101Z" fill="url(#paint7_linear_6888_5229)"/>
<g filter="url(#filter3_f_6888_5229)">
<path d="M14.7363 14.3439C15.1784 14.9689 15.6415 16.8096 14.916 18.9971" stroke="#686061" stroke-width="0.75" stroke-linecap="round"/>
</g>
<path d="M14.39 13.1101C15.17 13.8901 15.31 15.0101 14.7 15.6201C14.09 16.2301 12.97 16.0901 12.19 15.3101C11.41 14.5301 11.27 13.4101 11.88 12.8001C12.49 12.1901 13.61 12.3401 14.39 13.1101Z" fill="url(#paint8_linear_6888_5229)"/>
<defs>
<filter id="filter0_f_6888_5229" x="0.911682" y="6.74902" width="19.5547" height="19.824" filterUnits="userSpaceOnUse" color-interpolation-filters="sRGB">
<feFlood flood-opacity="0" result="BackgroundImageFix"/>
<feBlend mode="normal" in="SourceGraphic" in2="BackgroundImageFix" result="shape"/>
<feGaussianBlur stdDeviation="2" result="effect1_foregroundBlur_6888_5229"/>
</filter>
<filter id="filter1_f_6888_5229" x="14.7836" y="8.42334" width="17.2339" height="18.1497" filterUnits="userSpaceOnUse" color-interpolation-filters="sRGB">
<feFlood flood-opacity="0" result="BackgroundImageFix"/>
<feBlend mode="normal" in="SourceGraphic" in2="BackgroundImageFix" result="shape"/>
<feGaussianBlur stdDeviation="2" result="effect1_foregroundBlur_6888_5229"/>
</filter>
<filter id="filter2_f_6888_5229" x="25.6501" y="11.3911" width="4.99951" height="7.12512" filterUnits="userSpaceOnUse" color-interpolation-filters="sRGB">
<feFlood flood-opacity="0" result="BackgroundImageFix"/>
<feBlend mode="normal" in="SourceGraphic" in2="BackgroundImageFix" result="shape"/>
<feGaussianBlur stdDeviation="0.75" result="effect1_foregroundBlur_6888_5229"/>
</filter>
<filter id="filter3_f_6888_5229" x="12.8613" y="12.4689" width="4.30829" height="8.40332" filterUnits="userSpaceOnUse" color-interpolation-filters="sRGB">
<feFlood flood-opacity="0" result="BackgroundImageFix"/>
<feBlend mode="normal" in="SourceGraphic" in2="BackgroundImageFix" result="shape"/>
<feGaussianBlur stdDeviation="0.75" result="effect1_foregroundBlur_6888_5229"/>
</filter>
<radialGradient id="paint0_radial_6888_5229" cx="0" cy="0" r="1" gradientUnits="userSpaceOnUse" gradientTransform="translate(14.145 25.1178) rotate(-106.489) scale(11.7042 14.5244)">
<stop stop-color="#482641"/>
<stop offset="0.234375" stop-color="#4A2943"/>
<stop offset="1" stop-color="#654F5F"/>
</radialGradient>
<radialGradient id="paint1_radial_6888_5229" cx="0" cy="0" r="1" gradientUnits="userSpaceOnUse" gradientTransform="translate(13.1738 17.9377) rotate(-142.786) scale(11.105 7.13314)">
<stop offset="0.53125" stop-color="#1A1819" stop-opacity="0"/>
<stop offset="0.979459" stop-color="#1A1819"/>
</radialGradient>
<radialGradient id="paint2_radial_6888_5229" cx="0" cy="0" r="1" gradientUnits="userSpaceOnUse" gradientTransform="translate(18.8925 20.6564) rotate(-153.486) scale(15.5407 11.8197)">
<stop offset="0.857975" stop-color="#A28D8F" stop-opacity="0"/>
<stop offset="1" stop-color="#A28D8F"/>
</radialGradient>
<radialGradient id="paint3_radial_6888_5229" cx="0" cy="0" r="1" gradientUnits="userSpaceOnUse" gradientTransform="translate(26.8465 25.1178) rotate(-106.483) scale(11.7039 14.5197)">
<stop stop-color="#482641"/>
<stop offset="0.234375" stop-color="#4A2943"/>
<stop offset="1" stop-color="#654F5F"/>
</radialGradient>
<radialGradient id="paint4_radial_6888_5229" cx="0" cy="0" r="1" gradientUnits="userSpaceOnUse" gradientTransform="translate(25.6425 17.1877) rotate(-139.304) scale(9.15014 7.86603)">
<stop offset="0.494858" stop-color="#1A1819" stop-opacity="0"/>
<stop offset="0.979459" stop-color="#1A1819"/>
</radialGradient>
<radialGradient id="paint5_radial_6888_5229" cx="0" cy="0" r="1" gradientUnits="userSpaceOnUse" gradientTransform="translate(19.3925 13.2502) rotate(22.7928) scale(12.7453 20.3749)">
<stop offset="0.713432" stop-color="#1A1819" stop-opacity="0"/>
<stop offset="0.979459" stop-color="#1A1819"/>
</radialGradient>
<radialGradient id="paint6_radial_6888_5229" cx="0" cy="0" r="1" gradientUnits="userSpaceOnUse" gradientTransform="translate(31.5924 20.6564) rotate(-153.478) scale(15.5363 11.8189)">
<stop offset="0.857975" stop-color="#A28D8F" stop-opacity="0"/>
<stop offset="1" stop-color="#A28D8F"/>
</radialGradient>
<linearGradient id="paint7_linear_6888_5229" x1="26.57" y1="12.0543" x2="26.4823" y2="16" gradientUnits="userSpaceOnUse">
<stop offset="0.197917" stop-color="white"/>
<stop offset="1" stop-color="white" stop-opacity="0"/>
</linearGradient>
<linearGradient id="paint8_linear_6888_5229" x1="13.29" y1="12.0543" x2="13.2023" y2="16" gradientUnits="userSpaceOnUse">
<stop offset="0.197917" stop-color="white"/>
<stop offset="1" stop-color="white" stop-opacity="0"/>
</linearGradient>
</defs>
</svg>
