<svg width="32" height="32" viewBox="0 0 32 32" fill="none" xmlns="http://www.w3.org/2000/svg">
<g opacity="0.5" filter="url(#filter0_f_899_1210)">
<path d="M8.5 13.5C8.5 13.5 8.75 11.5 11 11.5C13.25 11.5 13.5 13.5 13.5 13.5" stroke="#9A4609" stroke-width="2" stroke-linecap="round"/>
</g>
<g opacity="0.5" filter="url(#filter1_f_899_1210)">
<path d="M17.5 13.5C17.5 13.5 18 11.5 20 11.5C22 11.5 22.5 13.5 22.5 13.5" stroke="#9A4609" stroke-width="2" stroke-linecap="round"/>
</g>
<path d="M9 13C9 13 9.25 11 11.5 11C13.75 11 14 13 14 13" stroke="#43273B" stroke-width="2" stroke-linecap="round" stroke-linejoin="round"/>
<g opacity="0.26" filter="url(#filter2_f_899_1210)">
<path d="M9.25 12.75C9.25 12.75 9.5 10.75 11.75 10.75C14 10.75 14.25 12.75 14.25 12.75" stroke="white" stroke-width="0.75" stroke-linecap="round" stroke-linejoin="round"/>
</g>
<path d="M18 13C18 13 18.5 11 20.5 11C22.5 11 23 13 23 13" stroke="#43273B" stroke-width="2" stroke-linecap="round" stroke-linejoin="round"/>
<g opacity="0.26" filter="url(#filter3_f_899_1210)">
<path d="M18.25 12.75C18.25 12.75 18.5 10.75 20.75 10.75C23 10.75 23.25 12.75 23.25 12.75" stroke="white" stroke-width="0.75" stroke-linecap="round" stroke-linejoin="round"/>
</g>
<defs>
<filter id="filter0_f_899_1210" x="5.99991" y="9" width="10.0002" height="7.00009" filterUnits="userSpaceOnUse" color-interpolation-filters="sRGB">
<feFlood flood-opacity="0" result="BackgroundImageFix"/>
<feBlend mode="normal" in="SourceGraphic" in2="BackgroundImageFix" result="shape"/>
<feGaussianBlur stdDeviation="0.75" result="effect1_foregroundBlur_899_1210"/>
</filter>
<filter id="filter1_f_899_1210" x="14.9998" y="9" width="10.0005" height="7.00024" filterUnits="userSpaceOnUse" color-interpolation-filters="sRGB">
<feFlood flood-opacity="0" result="BackgroundImageFix"/>
<feBlend mode="normal" in="SourceGraphic" in2="BackgroundImageFix" result="shape"/>
<feGaussianBlur stdDeviation="0.75" result="effect1_foregroundBlur_899_1210"/>
</filter>
<filter id="filter2_f_899_1210" x="7.37497" y="8.875" width="8.75006" height="5.75003" filterUnits="userSpaceOnUse" color-interpolation-filters="sRGB">
<feFlood flood-opacity="0" result="BackgroundImageFix"/>
<feBlend mode="normal" in="SourceGraphic" in2="BackgroundImageFix" result="shape"/>
<feGaussianBlur stdDeviation="0.75" result="effect1_foregroundBlur_899_1210"/>
</filter>
<filter id="filter3_f_899_1210" x="16.375" y="8.875" width="8.75006" height="5.75003" filterUnits="userSpaceOnUse" color-interpolation-filters="sRGB">
<feFlood flood-opacity="0" result="BackgroundImageFix"/>
<feBlend mode="normal" in="SourceGraphic" in2="BackgroundImageFix" result="shape"/>
<feGaussianBlur stdDeviation="0.75" result="effect1_foregroundBlur_899_1210"/>
</filter>
</defs>
</svg>
