<svg width="32" height="32" viewBox="0 0 32 32" fill="none" xmlns="http://www.w3.org/2000/svg">
<path d="M16.7795 14.798C16.7795 17.4077 18.895 19.5233 21.5047 19.5233C24.1144 19.5233 26.23 17.4077 26.23 14.798C26.23 12.1883 24.1144 10.0728 21.5047 10.0728C18.895 10.0728 16.7795 12.1883 16.7795 14.798Z" fill="white"/>
<path d="M19.2876 16.001C19.2876 17.2735 20.3192 18.3052 21.5918 18.3052C22.8644 18.3052 23.896 17.2735 23.896 16.001C23.896 14.7284 22.8644 13.6968 21.5918 13.6968C20.3192 13.6968 19.2876 14.7284 19.2876 16.001Z" fill="#402931"/>
</svg>
