<svg width="32" height="32" viewBox="0 0 32 32" fill="none" xmlns="http://www.w3.org/2000/svg">
<g clip-path="url(#clip0_30_50)">
<path d="M6.5 11.5C6.83333 10.5 8.1 8.5 10.5 8.5" stroke="url(#paint0_linear_30_50)" stroke-linecap="round" stroke-linejoin="round"/>
<path d="M25.5 11.5C25.1667 10.5 23.9 8.5 21.5 8.5" stroke="url(#paint1_linear_30_50)" stroke-linecap="round" stroke-linejoin="round"/>
</g>
<defs>
<linearGradient id="paint0_linear_30_50" x1="6.83333" y1="12.4" x2="6.83333" y2="10.6" gradientUnits="userSpaceOnUse">
<stop offset="0.0299084" stop-color="#524049"/>
<stop offset="1" stop-color="#4A2C42"/>
</linearGradient>
<linearGradient id="paint1_linear_30_50" x1="25.1667" y1="12.4" x2="25.1667" y2="10.6" gradientUnits="userSpaceOnUse">
<stop offset="0.0299084" stop-color="#524049"/>
<stop offset="1" stop-color="#4A2C42"/>
</linearGradient>
<clipPath id="clip0_30_50">
<rect width="32" height="32" fill="white"/>
</clipPath>
</defs>
</svg>
