<svg width="32" height="32" viewBox="0 0 32 32" fill="none" xmlns="http://www.w3.org/2000/svg">
<g filter="url(#filter0_f_6808_5229)">
<path fill-rule="evenodd" clip-rule="evenodd" d="M8.44878 11.9111C8.40731 11.5684 8.6515 11.257 8.99418 11.2155C10.2118 11.0682 10.8097 10.493 11.1217 9.99062C11.2843 9.72889 11.3762 9.47403 11.427 9.28526C11.4522 9.19155 11.4667 9.11626 11.4746 9.06753C11.4785 9.04323 11.4808 9.02578 11.4819 9.0162L11.4828 9.00816C11.5126 8.66627 11.8129 8.41203 12.1555 8.43957C12.4996 8.46723 12.7561 8.76857 12.7284 9.11264L12.1054 9.06256C12.7284 9.11264 12.7284 9.113 12.7284 9.11337L12.7283 9.11415L12.7282 9.1159L12.7278 9.12008L12.7267 9.13113C12.7259 9.13967 12.7247 9.15056 12.7232 9.16366C12.7201 9.18984 12.7154 9.22492 12.7084 9.26774C12.6946 9.35322 12.6716 9.47044 12.6341 9.60988C12.5595 9.88742 12.425 10.2615 12.1836 10.6501C11.6877 11.4485 10.7676 12.2601 9.14433 12.4565C8.80165 12.4979 8.49024 12.2538 8.44878 11.9111Z" fill="url(#paint0_radial_6808_5229)" fill-opacity="0.75" style="mix-blend-mode:multiply"/>
</g>
<path d="M11.3661 8.4375C11.3661 8.4375 11.3661 11.0781 8.44421 11.3281" stroke="url(#paint1_radial_6808_5229)" stroke-width="1.25" stroke-linecap="round" stroke-linejoin="round"/>
<g filter="url(#filter1_f_6808_5229)">
<path fill-rule="evenodd" clip-rule="evenodd" d="M23.8129 11.9111C23.8544 11.5684 23.6102 11.257 23.2675 11.2155C22.05 11.0682 21.452 10.493 21.14 9.99062C20.9774 9.72889 20.8855 9.47403 20.8347 9.28526C20.8095 9.19155 20.7951 9.11626 20.7872 9.06753C20.7832 9.04323 20.7809 9.02578 20.7798 9.0162L20.7789 9.00816C20.7491 8.66627 20.4488 8.41203 20.1062 8.43957C19.7621 8.46723 19.5056 8.76857 19.5333 9.11264L20.1563 9.06256C19.5333 9.11264 19.5333 9.113 19.5334 9.11337L19.5334 9.11415L19.5336 9.1159L19.5339 9.12008L19.535 9.13113C19.5358 9.13967 19.537 9.15056 19.5385 9.16366C19.5416 9.18984 19.5463 9.22492 19.5533 9.26774C19.5672 9.35322 19.5901 9.47044 19.6276 9.60988C19.7023 9.88742 19.8367 10.2615 20.0781 10.6501C20.574 11.4485 21.4941 12.2601 23.1174 12.4565C23.4601 12.4979 23.7715 12.2538 23.8129 11.9111Z" fill="url(#paint2_radial_6808_5229)" fill-opacity="0.75" style="mix-blend-mode:multiply"/>
</g>
<path d="M20.6317 8.4375C20.6317 8.4375 20.6317 11.0781 23.5536 11.3281" stroke="url(#paint3_radial_6808_5229)" stroke-width="1.25" stroke-linecap="round" stroke-linejoin="round"/>
<defs>
<filter id="filter0_f_6808_5229" x="7.94421" y="7.9375" width="5.28625" height="5.02356" filterUnits="userSpaceOnUse" color-interpolation-filters="sRGB">
<feFlood flood-opacity="0" result="BackgroundImageFix"/>
<feBlend mode="normal" in="SourceGraphic" in2="BackgroundImageFix" result="shape"/>
<feGaussianBlur stdDeviation="0.25" result="effect1_foregroundBlur_6808_5229"/>
</filter>
<filter id="filter1_f_6808_5229" x="19.0312" y="7.9375" width="5.28625" height="5.02356" filterUnits="userSpaceOnUse" color-interpolation-filters="sRGB">
<feFlood flood-opacity="0" result="BackgroundImageFix"/>
<feBlend mode="normal" in="SourceGraphic" in2="BackgroundImageFix" result="shape"/>
<feGaussianBlur stdDeviation="0.25" result="effect1_foregroundBlur_6808_5229"/>
</filter>
<radialGradient id="paint0_radial_6808_5229" cx="0" cy="0" r="1" gradientUnits="userSpaceOnUse" gradientTransform="translate(10.7941 11.1683) rotate(-78.6614) scale(4.595 3.23495)">
<stop offset="0.255208" stop-color="#993D29"/>
<stop offset="1" stop-color="#B14B35" stop-opacity="0"/>
</radialGradient>
<radialGradient id="paint1_radial_6808_5229" cx="0" cy="0" r="1" gradientUnits="userSpaceOnUse" gradientTransform="translate(9.06921 9.875) rotate(49.8812) scale(4.02522 9.57068)">
<stop offset="0.137915" stop-color="#694F62"/>
<stop offset="0.398102" stop-color="#482641"/>
</radialGradient>
<radialGradient id="paint2_radial_6808_5229" cx="0" cy="0" r="1" gradientUnits="userSpaceOnUse" gradientTransform="translate(21.4677 11.1683) rotate(-101.339) scale(4.595 3.23495)">
<stop offset="0.255208" stop-color="#993D29"/>
<stop offset="1" stop-color="#B14B35" stop-opacity="0"/>
</radialGradient>
<radialGradient id="paint3_radial_6808_5229" cx="0" cy="0" r="1" gradientUnits="userSpaceOnUse" gradientTransform="translate(22.9286 9.875) rotate(130.119) scale(4.02522 9.57068)">
<stop offset="0.137915" stop-color="#694F62"/>
<stop offset="0.398102" stop-color="#482641"/>
</radialGradient>
</defs>
</svg>
