<svg width="32" height="32" viewBox="0 0 32 32" fill="none" xmlns="http://www.w3.org/2000/svg">
<path d="M23.7812 19.933C23.7812 24.173 20.2412 26.683 16.0012 26.683C11.7612 26.683 8.25116 24.173 8.25116 19.933C8.25116 19.933 11.0312 21.933 16.0012 21.933C21.5312 21.923 23.7812 19.933 23.7812 19.933Z" fill="url(#paint0_linear_6815_5251)" stroke="url(#paint1_linear_6815_5251)" stroke-width="2.5" stroke-miterlimit="10" stroke-linecap="round" stroke-linejoin="round"/>
<g filter="url(#filter0_f_6815_5251)">
<path d="M16.0012 26.9329C19.5164 26.9329 22.7017 24.6922 23.688 21.5099" stroke="url(#paint2_linear_6815_5251)" stroke-width="1.5" stroke-miterlimit="10" stroke-linecap="round" stroke-linejoin="round"/>
</g>
<defs>
<filter id="filter0_f_6815_5251" x="14.7512" y="20.2598" width="10.187" height="7.92316" filterUnits="userSpaceOnUse" color-interpolation-filters="sRGB">
<feFlood flood-opacity="0" result="BackgroundImageFix"/>
<feBlend mode="normal" in="SourceGraphic" in2="BackgroundImageFix" result="shape"/>
<feGaussianBlur stdDeviation="0.25" result="effect1_foregroundBlur_6815_5251"/>
</filter>
<linearGradient id="paint0_linear_6815_5251" x1="16.0012" y1="22.433" x2="15.5012" y2="25.933" gradientUnits="userSpaceOnUse">
<stop stop-color="#C8A7C0"/>
<stop offset="1" stop-color="#ECCEDF"/>
</linearGradient>
<linearGradient id="paint1_linear_6815_5251" x1="5.87765" y1="23.308" x2="18.8776" y2="21.8689" gradientUnits="userSpaceOnUse">
<stop stop-color="#E31F6A"/>
<stop offset="1" stop-color="#F83594"/>
</linearGradient>
<linearGradient id="paint2_linear_6815_5251" x1="23.688" y1="17.4314" x2="16.0012" y2="26.9329" gradientUnits="userSpaceOnUse">
<stop offset="0.369011" stop-color="#FF7BBC" stop-opacity="0.4"/>
<stop offset="1" stop-color="#FB3982" stop-opacity="0"/>
</linearGradient>
</defs>
</svg>
