<svg width="32" height="32" viewBox="0 0 32 32" fill="none" xmlns="http://www.w3.org/2000/svg">
<path d="M18.5282 26H13.4718C12.6608 26 12 25.3265 12 24.5C12 23.6735 12.6608 23 13.4718 23H18.5282C19.3392 23 20 23.6735 20 24.5C20 25.3265 19.3392 26 18.5282 26Z" fill="url(#paint0_linear_31_1501)"/>
<defs>
<linearGradient id="paint0_linear_31_1501" x1="15.9982" y1="25.6859" x2="15.9982" y2="22.8893" gradientUnits="userSpaceOnUse">
<stop offset="0.00558659" stop-color="#39325E"/>
<stop offset="1" stop-color="#2B1831"/>
</linearGradient>
</defs>
</svg>
