<svg width="32" height="32" viewBox="0 0 32 32" fill="none" xmlns="http://www.w3.org/2000/svg">
<path d="M10 22C10.3333 21.3333 12 19 16 19C20 19 21.6667 21.3333 22 22" stroke="url(#paint0_linear_909_2982)" stroke-width="2" stroke-linecap="round"/>
<defs>
<linearGradient id="paint0_linear_909_2982" x1="16" y1="18" x2="16" y2="20" gradientUnits="userSpaceOnUse">
<stop stop-color="#4F3C43"/>
<stop offset="1" stop-color="#512756"/>
</linearGradient>
</defs>
</svg>
