<svg width="32" height="32" viewBox="0 0 32 32" fill="none" xmlns="http://www.w3.org/2000/svg">
<path d="M16 7C22.6274 7 28 5.99264 28 4.75C28 3.50736 22.6274 2.5 16 2.5C9.37258 2.5 4 3.50736 4 4.75C4 5.99264 9.37258 7 16 7Z" stroke="url(#paint0_linear_23_441)" stroke-width="3" stroke-miterlimit="10"/>
<path d="M16 7C22.6274 7 28 5.99264 28 4.75C28 3.50736 22.6274 2.5 16 2.5C9.37258 2.5 4 3.50736 4 4.75C4 5.99264 9.37258 7 16 7Z" stroke="url(#paint1_radial_23_441)" stroke-width="3" stroke-miterlimit="10"/>
<path fill-rule="evenodd" clip-rule="evenodd" d="M3.58545 8.87308C3.76914 9.03039 3.95754 9.1651 4.13427 9.27827C4.92402 9.78396 5.96733 10.183 7.12271 10.4959C9.45512 11.1276 12.5932 11.5 16.0001 11.5C19.4071 11.5 22.5451 11.1276 24.8775 10.4959C26.0329 10.183 27.0762 9.78396 27.866 9.27827C28.0422 9.16543 28.23 9.03115 28.4132 8.87442C27.7682 7.60018 26.9262 6.45596 25.8872 5.4834C25.2541 5.66662 24.6125 5.81191 24.0984 5.90115C25.1119 6.17598 25.8242 6.47668 26.2482 6.74818L26.2511 6.75L26.2482 6.75182C25.8235 7.02378 25.1095 7.32504 24.0933 7.60026C22.0825 8.14483 19.2206 8.5 16.0001 8.5C12.7796 8.5 9.9177 8.14483 7.90696 7.60026C6.89077 7.32504 6.17672 7.02378 5.75201 6.75182L5.74916 6.75L5.75201 6.74818C6.16147 6.48598 6.83987 6.19655 7.79869 5.92948C7.31166 5.85527 6.67802 5.72592 6.0317 5.55817C5.02935 6.51408 4.21395 7.63189 3.58545 8.87308ZM5.44075 6.99946C5.44029 6.99941 5.44277 6.99515 5.44957 6.98683C5.44461 6.99535 5.44121 6.99951 5.44075 6.99946ZM26.5595 6.99946C26.559 6.99951 26.5556 6.99535 26.5507 6.98683C26.5575 6.99515 26.5599 6.99941 26.5595 6.99946ZM26.5507 6.51317C26.5556 6.50465 26.559 6.50049 26.5595 6.50054C26.5599 6.50059 26.5575 6.50485 26.5507 6.51317ZM5.44957 6.51317C5.44277 6.50485 5.44029 6.50059 5.44075 6.50054C5.44121 6.50049 5.44461 6.50465 5.44957 6.51317Z" fill="url(#paint2_radial_23_441)"/>
<path fill-rule="evenodd" clip-rule="evenodd" d="M3.12336 3.29456C3.85261 4.18731 7.59851 4.99999 8.5 4.99999H8.57107C10.5521 5.30835 13.1419 5.50004 16 5.50004C18.9216 5.50004 21.5628 5.29974 23.56 4.97927C24.9298 4.83139 28.5 3.91569 28.5 2.99999V2.97144C28.5936 3.03932 28.684 3.11223 28.7696 3.19065C29.0955 3.48929 29.5 4.01209 29.5 4.75004C29.5 5.48799 29.0955 6.01079 28.7696 6.30944C28.4408 6.61068 28.0408 6.83048 27.6649 6.99714C26.9026 7.33505 25.8931 7.6032 24.7617 7.81534C22.4742 8.24425 19.3773 8.50004 16 8.50004C12.6227 8.50004 9.52578 8.24425 7.23829 7.81534C6.10686 7.6032 5.09739 7.33505 4.33512 6.99714C3.95916 6.83048 3.5592 6.61068 3.23044 6.30944C2.90451 6.01079 2.5 5.48799 2.5 4.75004C2.5 4.09131 2.82233 3.60401 3.12336 3.29456Z" fill="url(#paint3_radial_23_441)"/>
<path fill-rule="evenodd" clip-rule="evenodd" d="M3.12336 3.29456C3.85261 4.18731 7.59851 4.99999 8.5 4.99999H8.57107C10.5521 5.30835 13.1419 5.50004 16 5.50004C18.9216 5.50004 21.5628 5.29974 23.56 4.97927C24.9298 4.83139 28.5 3.91569 28.5 2.99999V2.97144C28.5936 3.03932 28.684 3.11223 28.7696 3.19065C29.0955 3.48929 29.5 4.01209 29.5 4.75004C29.5 5.48799 29.0955 6.01079 28.7696 6.30944C28.4408 6.61068 28.0408 6.83048 27.6649 6.99714C26.9026 7.33505 25.8931 7.6032 24.7617 7.81534C22.4742 8.24425 19.3773 8.50004 16 8.50004C12.6227 8.50004 9.52578 8.24425 7.23829 7.81534C6.10686 7.6032 5.09739 7.33505 4.33512 6.99714C3.95916 6.83048 3.5592 6.61068 3.23044 6.30944C2.90451 6.01079 2.5 5.48799 2.5 4.75004C2.5 4.09131 2.82233 3.60401 3.12336 3.29456Z" fill="url(#paint4_radial_23_441)"/>
<defs>
<linearGradient id="paint0_linear_23_441" x1="16" y1="1" x2="16" y2="4.5" gradientUnits="userSpaceOnUse">
<stop stop-color="#3173EC"/>
<stop offset="1" stop-color="#3A54E1"/>
</linearGradient>
<radialGradient id="paint1_radial_23_441" cx="0" cy="0" r="1" gradientUnits="userSpaceOnUse" gradientTransform="translate(9.5 7.5) rotate(-105.945) scale(7.28011 11.995)">
<stop offset="0.482485" stop-color="#5468DB"/>
<stop offset="0.734708" stop-color="#5292FF"/>
<stop offset="0.988246" stop-color="#486FFF" stop-opacity="0"/>
</radialGradient>
<radialGradient id="paint2_radial_23_441" cx="0" cy="0" r="1" gradientUnits="userSpaceOnUse" gradientTransform="translate(14.5 6.5) rotate(90) scale(3.5 19.4266)">
<stop stop-color="#392108"/>
<stop offset="1" stop-color="#C87928" stop-opacity="0"/>
</radialGradient>
<radialGradient id="paint3_radial_23_441" cx="0" cy="0" r="1" gradientUnits="userSpaceOnUse" gradientTransform="translate(16.5 -23) rotate(90) scale(33 38.8902)">
<stop offset="0.842736" stop-color="#425BFF"/>
<stop offset="0.898067" stop-color="#508FFF"/>
<stop offset="0.957885" stop-color="#4457FF"/>
</radialGradient>
<radialGradient id="paint4_radial_23_441" cx="0" cy="0" r="1" gradientUnits="userSpaceOnUse" gradientTransform="translate(6.5 3.5) scale(14 16.4989)">
<stop stop-color="#5664D2"/>
<stop offset="1" stop-color="#4457FF" stop-opacity="0"/>
</radialGradient>
</defs>
</svg>
