<svg width="32" height="32" viewBox="0 0 32 32" fill="none" xmlns="http://www.w3.org/2000/svg">
<g filter="url(#filter0_f_23_466)">
<path fill-rule="evenodd" clip-rule="evenodd" d="M27.9508 21.6883C27.3223 21.2776 26.4217 21.08 25.259 21.2548C24.4832 18.339 20.4614 18.132 20.0677 21.2713C19.8041 23.3735 20.7582 25.5858 21.3614 26.7347C21.6115 27.2109 22.0725 27.5238 22.5997 27.5647C25.1392 26.2805 26.9228 24.2134 27.9508 21.6883Z" fill="#E4694E"/>
</g>
<path d="M23.742 26.5691C24.8387 26.552 26.7406 26.338 28.479 25.2314C31.1718 23.5172 30.2894 19.649 26.259 20.2548C25.4833 17.339 21.4614 17.132 21.0678 20.2713C20.8042 22.3735 21.7583 24.5858 22.3615 25.7347C22.6338 26.2533 23.1563 26.5782 23.742 26.5691Z" fill="url(#paint0_radial_23_466)"/>
<g filter="url(#filter1_f_23_466)">
<path d="M22.5 20.5L24 24.5L28.5 23" stroke="#E9228A"/>
</g>
<g filter="url(#filter2_f_23_466)">
<path d="M24.5 23L26 20L24.5 18.5L23.5 20.5L24.5 23Z" fill="#F8718F"/>
</g>
<g filter="url(#filter3_f_23_466)">
<path d="M26.5 23L28 21L29.5 22L26.5 23Z" fill="#F8718F"/>
</g>
<defs>
<filter id="filter0_f_23_466" x="18.0227" y="16.9918" width="11.9282" height="12.5729" filterUnits="userSpaceOnUse" color-interpolation-filters="sRGB">
<feFlood flood-opacity="0" result="BackgroundImageFix"/>
<feBlend mode="normal" in="SourceGraphic" in2="BackgroundImageFix" result="shape"/>
<feGaussianBlur stdDeviation="1" result="effect1_foregroundBlur_23_466"/>
</filter>
<filter id="filter1_f_23_466" x="20.0317" y="18.3245" width="10.6265" height="8.80225" filterUnits="userSpaceOnUse" color-interpolation-filters="sRGB">
<feFlood flood-opacity="0" result="BackgroundImageFix"/>
<feBlend mode="normal" in="SourceGraphic" in2="BackgroundImageFix" result="shape"/>
<feGaussianBlur stdDeviation="1" result="effect1_foregroundBlur_23_466"/>
</filter>
<filter id="filter2_f_23_466" x="22.5" y="17.5" width="4.5" height="6.5" filterUnits="userSpaceOnUse" color-interpolation-filters="sRGB">
<feFlood flood-opacity="0" result="BackgroundImageFix"/>
<feBlend mode="normal" in="SourceGraphic" in2="BackgroundImageFix" result="shape"/>
<feGaussianBlur stdDeviation="0.5" result="effect1_foregroundBlur_23_466"/>
</filter>
<filter id="filter3_f_23_466" x="25.5" y="20" width="5" height="4" filterUnits="userSpaceOnUse" color-interpolation-filters="sRGB">
<feFlood flood-opacity="0" result="BackgroundImageFix"/>
<feBlend mode="normal" in="SourceGraphic" in2="BackgroundImageFix" result="shape"/>
<feGaussianBlur stdDeviation="0.5" result="effect1_foregroundBlur_23_466"/>
</filter>
<radialGradient id="paint0_radial_23_466" cx="0" cy="0" r="1" gradientUnits="userSpaceOnUse" gradientTransform="translate(25 20.5) rotate(78.6901) scale(7.64853 8.54557)">
<stop stop-color="#DA2856"/>
<stop offset="0.6229" stop-color="#DF2162"/>
<stop offset="0.940932" stop-color="#FF67C6"/>
</radialGradient>
</defs>
</svg>
