<svg width="32" height="32" viewBox="0 0 32 32" fill="none" xmlns="http://www.w3.org/2000/svg">
<path fill-rule="evenodd" clip-rule="evenodd" d="M28 23.876V23.5C28 21.567 26.433 20 24.5 20C22.567 20 21 21.567 21 23.5L21 29.2962C24.1723 28.3227 26.5055 26.394 28 23.876Z" fill="url(#paint0_radial_23_491)"/>
<rect x="24" y="20" width="5" height="10" rx="2.5" fill="url(#paint1_radial_23_491)"/>
<defs>
<radialGradient id="paint0_radial_23_491" cx="0" cy="0" r="1" gradientUnits="userSpaceOnUse" gradientTransform="translate(25.5 24.5) rotate(107.354) scale(8.38153 3.84281)">
<stop stop-color="#392108"/>
<stop offset="1" stop-color="#C87928" stop-opacity="0"/>
</radialGradient>
<radialGradient id="paint1_radial_23_491" cx="0" cy="0" r="1" gradientUnits="userSpaceOnUse" gradientTransform="translate(28.1667 20.4545) rotate(103.449) scale(10.7493 3.72027)">
<stop stop-color="#5C98FF"/>
<stop offset="0.805982" stop-color="#3D5BF1"/>
<stop offset="0.962238" stop-color="#6065CA"/>
</radialGradient>
</defs>
</svg>
